{
    "version": "1.0.0",
    "summary": "Web client for Draiocht blog.",
    "repository": "https://github.com/kolorahl/draiocht.git",
    "license": "WTF",
    "source-directories": [
        "src"
    ],
    "exposed-modules": [],
    "native-modules": false,
    "dependencies": {
        "elm-lang/core": "4.0.0 <= v < 5.0.0",
        "elm-lang/html": "1.0.0 <= v < 2.0.0",
        "elm-lang/navigation": "1.0.0 <= v < 2.0.0",
        "evancz/elm-http": "3.0.0 <= v < 4.0.0",
        "evancz/elm-markdown": "3.0.0 <= v < 4.0.0"
    },
    "elm-version": "0.17.0 <= v < 0.18.0"
}
